{
  "catagoryTitle": "Spring Opening Questionnaire",
  "catagoryBasePrice" : 194,
  "catagoryBaseService": "Winterize pool",
  "questions": [
    {
      "question": "Do you have a heater",
      "imgUrl": "http://atlantispool.net/wp-content/uploads/2016/02/heater2-1.jpg",
      "desc": "Reassemble and start pool heater",
      "id": "heater",
      "price": 35
    },
    {
      "question": "Do you need your cover removed",
      "imgUrl": "http://atlantispool.net/wp-content/uploads/2016/02/solid-cover.jpg",
      "desc": "Remove & fold pool cover",
      "id": "cover",
      "price": 125
    },
    {
      "question": "Do you have a spa or Jacuzzi",
      "imgUrl": "http://atlantispool.net/wp-content/uploads/2016/02/spa.jpg",
      "desc": "Reassemble and start attached spa",
      "id": "waterfall",
      "price": 35
    }
  ]
}
